Portfolio of The Statistic
…
This table comes from joining Team Roster data including Salaries of each player on each team roster, to Player data for each year of interest. By doing this we end up with Salaries for each player for a given year and important Player statistics for:

the season immediately before the Salary year

the player’s career so far up to and including the year before the Salary year

the playoffs for the season immediately before the Salary year

the player’s playoff career so far up to and including the year before the Salary year

 Now the entire 10 years of data is available in a data frame called Salary.Data.

Here we show the first few rows and columns of the Salary.Data table:

## # A tibble: 3,697 × 10
##      No.            Player  Pos.x       Ht    Wt        Birth.Date  Var.7
##    <int>            <fctr> <fctr>    <dbl> <int>            <fctr> <fctr>
## 1     34    Aaron Williams      C 6.750000   220   October 2, 1971     us
## 2     31      Adonal Foyle      C 6.833333   250     March 9, 1975     vc
## 3     44    Adrian Griffin     SG 6.416667   217      July 4, 1974     us
## 4     13 Alexander Johnson     PF 6.750000   240  February 8, 1983     us
## 5      3     Al Harrington      C 6.750000   230 February 17, 1980     us
## 6     25      Al Jefferson      C 6.833333   289   January 4, 1985     us
## 7      3     Allen Iverson     SG 6.000000   165      June 7, 1975     us
## 8     33   Alonzo Mourning      C 6.833333   240  February 8, 1970     us
## 9      1 Amar'e Stoudemire      C 6.833333   245 November 16, 1982     us
## 10    25      Amir Johnson     PF 6.750000   240       May 1, 1987     us
## # ... with 3,687 more rows, and 3 more variables: Exp <int>,
## #   College <fctr>, playerurls <fctr>
…
regressions <- 
  Salary.Data %>%
  group_by(Year) %>% 
  do(fit = lm(data=., lmformula))

Now I look at the first 10 rows of the regressions:

regressions %>% tidy(fit)

## Source: local data frame [790 x 6]
## Groups: Year [10]
## 
##     Year        term      estimate   std.error  statistic    p.value
##    <int>       <chr>         <dbl>       <dbl>      <dbl>      <dbl>
## 1   2007 (Intercept) -8312764.9134 5805340.561 -1.4319168 0.15324824
## 2   2007          Ht   945597.6087  985967.663  0.9590554 0.33833249
## 3   2007          Wt    19381.7866    9914.173  1.9549574 0.05155188
## 4   2007         Exp  -159112.8575  240450.372 -0.6617285 0.50867252
## 5   2007         Age   -97225.1972   84064.426 -1.1565558 0.24840902
## 6   2007           G   -49309.9869   20930.506 -2.3558908 0.01914622
## 7   2007          GS     1160.8693   14386.425  0.0806920 0.93574275
## 8   2007          MP     -325.5989    1342.127 -0.2425992 0.80848798
## 9   2007          FG   -21982.6076   12014.771 -1.8296319 0.06833511
## 10  2007         FGA    12438.8025    5901.391  2.1077746 0.03591155
## # ... with 780 more rows
…
regressions <- 
  Salary.Data %>%
  group_by(Year, Pos.x) %>% 
  do(fit = lm(data=., lmformula))

Look at the regressions:

options(tibble.print_max = 10, tibble.print_min = 10)
regressions %>% tidy(fit)

## Source: local data frame [2,550 x 7]
## Groups: Year, Pos.x [50]
## 
##     Year Pos.x        term     estimate   std.error  statistic    p.value
##    <int> <chr>       <chr>        <dbl>       <dbl>      <dbl>      <dbl>
## 1   2007     C (Intercept) 13643622.752 5092354.154  2.6792368 0.01186184
## 2   2007     C          Wt   -25961.483   14307.341 -1.8145568 0.07960387
## 3   2007     C         Age  -257258.082  130914.569 -1.9650837 0.05872372
## 4   2007     C           G   -33120.656   31672.247 -1.0457312 0.30403826
## 5   2007     C         FGA    -5428.073    4591.574 -1.1821813 0.24641947
## 6   2007     C         DRB    24987.223    9453.315  2.6432233 0.01292896
## 7   2007     C         AST   -13964.992   15094.585 -0.9251657 0.36226242
## 8   2007     C         BLK   -32448.226   14629.157 -2.2180517 0.03426697
## 9   2007     C         TOV    41729.156   18223.296  2.2898797 0.02923412
## 10  2007     C          PF   -18017.244   12434.320 -1.4489932 0.15771263
## # ... with 2,540 more rows

Now I look at the R2 values for the regressions by Year:

regressions %>% glance(fit)

## Source: local data frame [50 x 13]
## Groups: Year, Pos.x [50]
## 
##     Year Pos.x r.squared adj.r.squared     sigma statistic      p.value
##    <int> <chr>     <dbl>         <dbl>     <dbl>     <dbl>        <dbl>
## 1   2007     C 0.9627423     0.9006461 1551483.9 15.504048 3.968961e-12
## 2   2007    PF 0.9537567     0.8791707 1714057.6 12.787349 2.803300e-11
## 3   2007    PG 0.9702626     0.9056162 1415036.3 15.008759 1.038530e-09
## 4   2007    SF 0.9943934     0.9593525  823788.7 28.378007 1.816587e-05
## 5   2007    SG 0.9650752     0.8819210 1789199.7 11.605849 5.477196e-08
## 6   2008     C 0.9409015     0.8539918 1911140.3 10.826207 5.013926e-11
## 7   2008    PF 0.9755756     0.9145146 1547488.9 15.977072 5.786535e-09
## 8   2008    PG 0.9858474     0.9314142 1227583.5 18.111142 9.013580e-07
## 9   2008    SF 0.9671270     0.8849443 1510360.8 11.768024 9.350509e-08
## 10  2008    SG 0.9500380     0.8414250 2081518.2  8.747002 2.556934e-07
## # ... with 40 more rows, and 6 more variables: df <int>, logLik <dbl>,
## #   AIC <dbl>, BIC <dbl>, deviance <dbl>, df.residual <int>

Now lets plot R2 vs year.

First, lets look at the data we want:

regressions %>% 
  glance(fit) %>% 
  select(Position = Pos.x, Year, r.squared)

## Source: local data frame [50 x 3]
## Groups: Year, Position [50]
## 
##    Position  Year r.squared
##       <chr> <int>     <dbl>
## 1         C  2007 0.9627423
## 2        PF  2007 0.9537567
## 3        PG  2007 0.9702626
## 4        SF  2007 0.9943934
## 5        SG  2007 0.9650752
## 6         C  2008 0.9409015
## 7        PF  2008 0.9755756
## 8        PG  2008 0.9858474
## 9        SF  2008 0.9671270
## 10       SG  2008 0.9500380
## # ... with 40 more rows
…
Center_regressions <- 
  Salary.Data %>%
  filter(Pos.x=="C") %>%
  group_by(Year) %>% 
  do(fit = lm(data=., lmformula))

Look at the regressions for the Center position:

options(tibble.print_max = 10, tibble.print_min = 10)
Center_regressions %>% tidy(fit)

## Source: local data frame [120 x 6]
## Groups: Year [10]
## 
##     Year        term     estimate    std.error  statistic     p.value
##    <int>       <chr>        <dbl>        <dbl>      <dbl>       <dbl>
## 1   2007 (Intercept) -969259.1405 4089052.2419 -0.2370376 0.813329969
## 2   2007          Wt    6981.9910   16076.4193  0.4343001 0.665425608
## 3   2007         FGA    3060.5535    2020.7410  1.5145699 0.134449017
## 4   2007         AST   15268.2889    9364.8165  1.6303885 0.107576252
## 5   2007         BLK    1987.0806    7939.6842  0.2502720 0.803120697
## 6   2007    CareerFG     879.9829     851.0105  1.0340446 0.304725945
## 7   2007   Career3PA    -918.2379    1702.9949 -0.5391901 0.591491323
## 8   2007   CareerORB    1905.1196    1068.9833  1.7821791 0.079119615
## 9   2007   PlayoffMP  -11518.1934    4895.1953 -2.3529589 0.021481400
## 10  2007  PlayoffFTA   98913.9506   34849.5540  2.8383132 0.005951579
## # ... with 110 more rows
…
